<?xml version="1.0" encoding="UTF-8" standalone="no"?>
<svg
   xmlns:dc="http://purl.org/dc/elements/1.1/"
   xmlns:cc="http://creativecommons.org/ns#"
   xmlns:rdf="http://www.w3.org/1999/02/22-rdf-syntax-ns#"
   xmlns:svg="http://www.w3.org/2000/svg"
   xmlns="http://www.w3.org/2000/svg"
   xmlns:sodipodi="http://sodipodi.sourceforge.net/DTD/sodipodi-0.dtd"
   xmlns:inkscape="http://www.inkscape.org/namespaces/inkscape"
   id="outer"
   viewBox="0 0 100 100"
   version="1.1"
   sodipodi:docname="outer_4.svg"
   inkscape:version="0.92.4 (5da689c313, 2019-01-14)">
  <metadata
     id="metadata5642">
    <rdf:RDF>
      <cc:Work
         rdf:about="">
        <dc:format>image/svg+xml</dc:format>
        <dc:type
           rdf:resource="http://purl.org/dc/dcmitype/StillImage" />
      </cc:Work>
    </rdf:RDF>
  </metadata>
  <sodipodi:namedview
     pagecolor="#ffffff"
     bordercolor="#666666"
     borderopacity="1"
     objecttolerance="10"
     gridtolerance="10"
     guidetolerance="10"
     inkscape:pageopacity="0"
     inkscape:pageshadow="2"
     inkscape:window-width="732"
     inkscape:window-height="480"
     id="namedview5640"
     showgrid="false"
     inkscape:zoom="2.36"
     inkscape:cx="50"
     inkscape:cy="50"
     inkscape:window-x="0"
     inkscape:window-y="0"
     inkscape:window-maximized="0"
     inkscape:current-layer="outer" />
  <defs
     id="defs5633">
    <style
       id="style5631">.cls-1{fill:#ee4023;}</style>
  </defs>
  <title
     id="title5635">outer_4</title>
  <path
     inkscape:connector-curvature="0"
     class="cls-4"
     d="M 57.54,36.42 50,2.84 49.54,36.42 v 0 0 z"
     id="path4135-6-3-4"
     style="fill:#800066;stroke-width:2"
     sodipodi:nodetypes="cccccc" />
  <path
     sodipodi:nodetypes="cccccc"
     style="fill:#aa0088;stroke-width:2"
     id="path4372"
     d="m 57.54,36.42 h -8 v 0 0 L 50,97.12 Z"
     class="cls-4"
     inkscape:connector-curvature="0" />
</svg>
